%YAML 1.1
%TAG !u! tag:unity3d.com,2011:
--- !u!74 &7400000
AnimationClip:
  m_ObjectHideFlags: 0
  m_CorrespondingSourceObject: {fileID: 0}
  m_PrefabInternal: {fileID: 0}
  m_Name: Image_ChargeShip
  serializedVersion: 6
  m_Legacy: 0
  m_Compressed: 0
  m_UseHighQualityCurve: 1
  m_RotationCurves: []
  m_CompressedRotationCurves: []
  m_EulerCurves: []
  m_PositionCurves: []
  m_ScaleCurves: []
  m_FloatCurves: []
  m_PPtrCurves:
  - curve:
    - time: 0
      value: {fileID: 21300000, guid: 9f3ff73cead243747ac92b9347d854f0, type: 3}
    - time: 0.083333336
      value: {fileID: 21300000, guid: 38dcda7ff4a81d843bbc519092ebe661, type: 3}
    - time: 0.16666667
      value: {fileID: 21300000, guid: dfe3ac9a5cb8de0428db42499dd5b298, type: 3}
    - time: 0.25
      value: {fileID: 21300000, guid: f48009b23b0fa124cbec673650d2aa9d, type: 3}
    - time: 0.33333334
      value: {fileID: 21300000, guid: 5c95d788e4dfd6141896b0dcdfe8d720, type: 3}
    - time: 0.41666666
      value: {fileID: 21300000, guid: cfbf6cbccf92be744a1d07e2ff7506a6, type: 3}
    - time: 0.5
      value: {fileID: 21300000, guid: f14c29c559cca5b49bd9c4e26c85aa5c, type: 3}
    - time: 0.5833333
      value: {fileID: 21300000, guid: ff66a8b0b3bdfb64780d464271d9c013, type: 3}
    - time: 0.6666667
      value: {fileID: 21300000, guid: e35d7947fe769c442bd21ff1221fa4a5, type: 3}
    - time: 0.75
      value: {fileID: 21300000, guid: 07d919ada57890a4b9e725b25fdcd276, type: 3}
    - time: 0.8333333
      value: {fileID: 21300000, guid: f27c9c7aa24629c409bb29d80c2ae557, type: 3}
    - time: 0.9166667
      value: {fileID: 21300000, guid: d56ebab98f500f74a98daaff1cc8fa84, type: 3}
    - time: 1
      value: {fileID: 21300000, guid: 7da843390a750d84099afaa38fc2f9ac, type: 3}
    - time: 1.0833334
      value: {fileID: 21300000, guid: 00a32131ba5f12240ad8f9452723fd42, type: 3}
    - time: 1.1666666
      value: {fileID: 21300000, guid: 4716afdc221eed44598d74474d0216c8, type: 3}
    - time: 1.25
      value: {fileID: 21300000, guid: 1f2067547c40fbe4686960d841f8372e, type: 3}
    - time: 1.3333334
      value: {fileID: 21300000, guid: e1f53ced21f41bf449265e02d355a539, type: 3}
    - time: 1.4166666
      value: {fileID: 21300000, guid: ba5a8d6ae33067d4d90a7f6cf0d36fd6, type: 3}
    - time: 1.5
      value: {fileID: 21300000, guid: 7ab397fefc2ee87429695858ac3a861d, type: 3}
    - time: 1.5833334
      value: {fileID: 21300000, guid: a7a261c15e2fd444f9d3560f43fdaa44, type: 3}
    - time: 1.6666666
      value: {fileID: 21300000, guid: 39f48a0162c6c654fb105ab6176707c0, type: 3}
    - time: 1.75
      value: {fileID: 21300000, guid: 4988ae4004477e24e8192896ee6bc416, type: 3}
    - time: 1.8333334
      value: {fileID: 21300000, guid: ad7fc4a3b5736df43bcc46893f72fb27, type: 3}
    - time: 1.9166666
      value: {fileID: 21300000, guid: 131068f5423fd094d98eb7da52fa216c, type: 3}
    - time: 2
      value: {fileID: 21300000, guid: 5d7d5caf9a85541409ad9e16f2c8fd75, type: 3}
    - time: 2.0833333
      value: {fileID: 21300000, guid: 77ec44a112f6431459b6c5d3a3c1655e, type: 3}
    - time: 2.1666667
      value: {fileID: 21300000, guid: 4a264de5072eab34dbe873b4c78634e8, type: 3}
    - time: 2.25
      value: {fileID: 21300000, guid: 0bdcfb1f103d015459333fc2839be1a5, type: 3}
    - time: 2.3333333
      value: {fileID: 21300000, guid: dcfc1d710f7a14d488ef52906938ab52, type: 3}
    - time: 2.4166667
      value: {fileID: 21300000, guid: 62527732690e68142bcab1aa941cdc84, type: 3}
    - time: 2.5
      value: {fileID: 21300000, guid: 0d0fbcabb6297c4448d8dc43bfce30d1, type: 3}
    - time: 2.5833333
      value: {fileID: 21300000, guid: d65113e9db3bfbd40b932cc25003354a, type: 3}
    - time: 2.6666667
      value: {fileID: 21300000, guid: ae14531a49c8d504697696ccce7d3be4, type: 3}
    - time: 2.75
      value: {fileID: 21300000, guid: eb6c1388a8e0dfd4fb37d305f82bf53d, type: 3}
    - time: 2.8333333
      value: {fileID: 21300000, guid: f33dbb29aee8c704fb0fa648fb71f2a8, type: 3}
    - time: 2.9166667
      value: {fileID: 21300000, guid: 799c138ba59fb954fb126e935debbcbd, type: 3}
    - time: 3
      value: {fileID: 21300000, guid: 5704b876794c3b045a5cc2ef06498fbc, type: 3}
    - time: 3.0833333
      value: {fileID: 21300000, guid: a485c9896d2373246be2c9e5d9ae9922, type: 3}
    - time: 3.1666667
      value: {fileID: 21300000, guid: 2ed92577f4a5e014d8597d3db7698f64, type: 3}
    - time: 3.25
      value: {fileID: 21300000, guid: 5848cea2f9375da4fa910ccce760d39c, type: 3}
    - time: 3.3333333
      value: {fileID: 21300000, guid: 0726a5769c30a3b4fb1a1cd7f9906df7, type: 3}
    - time: 3.4166667
      value: {fileID: 21300000, guid: 58d75ebd387f12e4797c11c57d5e14f9, type: 3}
    - time: 3.5
      value: {fileID: 21300000, guid: e73a15b177100614385db6e7d03ef6b3, type: 3}
    - time: 3.5833333
      value: {fileID: 21300000, guid: 116a73404634b1d4bb264fda8e408530, type: 3}
    - time: 3.6666667
      value: {fileID: 21300000, guid: 09270b4778d18e34a85e542c96a42652, type: 3}
    - time: 3.75
      value: {fileID: 21300000, guid: c86afcce74cc2314f990e98a30603fb6, type: 3}
    - time: 3.8333333
      value: {fileID: 21300000, guid: 6130114c14105164f8a7530a9c4f9799, type: 3}
    - time: 3.9166667
      value: {fileID: 21300000, guid: 44ad2743b6967e94aaa3c83a903883ec, type: 3}
    - time: 4
      value: {fileID: 21300000, guid: 64573fb4978d98d44bca3423bfd70f8f, type: 3}
    - time: 4.0833335
      value: {fileID: 21300000, guid: 690df3d7fcd00fa4d8a139a947a3bf11, type: 3}
    - time: 4.1666665
      value: {fileID: 21300000, guid: 4b6748e0bf691b94e93b4ef3a3c0149c, type: 3}
    - time: 4.25
      value: {fileID: 21300000, guid: 78c17adc515aea74aa147d2ecf67ff3e, type: 3}
    - time: 4.3333335
      value: {fileID: 21300000, guid: bccfb69da8a31324f937fbc3f8ec1674, type: 3}
    - time: 4.4166665
      value: {fileID: 21300000, guid: b44a8f81d30298443a0ac9af1c4009d5, type: 3}
    - time: 4.5
      value: {fileID: 21300000, guid: 6c2c4baf0395dae4dac24451afa5c418, type: 3}
    - time: 4.5833335
      value: {fileID: 21300000, guid: 36685de6a12c4de4ea2529eea8bed163, type: 3}
    - time: 4.6666665
      value: {fileID: 21300000, guid: 4a64942dec261b84b8274257db15887b, type: 3}
    - time: 4.75
      value: {fileID: 21300000, guid: 96bf96d2e67e18b488c72db8ba076fa4, type: 3}
    - time: 4.8333335
      value: {fileID: 21300000, guid: a86be5cec08051541a1c461dec1b97b7, type: 3}
    - time: 4.9166665
      value: {fileID: 21300000, guid: 8c00ca31ee9e9f34ea9561baffa29e7c, type: 3}
    - time: 5
      value: {fileID: 21300000, guid: 8725ac0b34fae5648b400df7f47f58d1, type: 3}
    - time: 5.0833335
      value: {fileID: 21300000, guid: f28659b2195b97e4d8d4c408c1ff1ca2, type: 3}
    - time: 5.1666665
      value: {fileID: 21300000, guid: 84c9c0e02ebf5be44b5b61720ab1dc43, type: 3}
    - time: 5.25
      value: {fileID: 21300000, guid: 3b9edfa6157c9cf48a3236817edd792d, type: 3}
    - time: 5.3333335
      value: {fileID: 21300000, guid: 8703b403dfa67dc4bad7494da0af6e31, type: 3}
    - time: 5.4166665
      value: {fileID: 21300000, guid: f37908c48491aa74da2096e72e8973b0, type: 3}
    - time: 5.5
      value: {fileID: 21300000, guid: 028ba52480709de4b8ed86b0307c3f9e, type: 3}
    - time: 5.5833335
      value: {fileID: 21300000, guid: acf81c02e6d19374ba5fb58208d78146, type: 3}
    - time: 5.6666665
      value: {fileID: 21300000, guid: 35805342e45e79d45b0c21e1e24ffefb, type: 3}
    - time: 5.75
      value: {fileID: 21300000, guid: 00912047aaa99944e8cfe8dd554c053e, type: 3}
    - time: 5.8333335
      value: {fileID: 21300000, guid: ca408a5162323f5409c9c76213fc27ee, type: 3}
    - time: 5.9166665
      value: {fileID: 21300000, guid: e55ca02e49ca3384b895c4588311c680, type: 3}
    - time: 6
      value: {fileID: 21300000, guid: 05c26e46fb42fea4bbcb4056b0d80f56, type: 3}
    - time: 6.0833335
      value: {fileID: 21300000, guid: a01de7d2ccb283743a3693c327a021d9, type: 3}
    - time: 6.1666665
      value: {fileID: 21300000, guid: c6ac077d53fbc344d8ecafc32c4b8191, type: 3}
    - time: 6.25
      value: {fileID: 21300000, guid: 6594867519a486e48b3c5664bde2ccb3, type: 3}
    - time: 6.3333335
      value: {fileID: 21300000, guid: aab9ea667bd70ea4187b203228c51207, type: 3}
    - time: 6.4166665
      value: {fileID: 21300000, guid: 391d7ececba8128408275ee1fcc6f339, type: 3}
    - time: 6.5
      value: {fileID: 21300000, guid: 306290b9bb4aecb498fa32ef49bb3081, type: 3}
    - time: 6.5833335
      value: {fileID: 21300000, guid: c1c0a631a00f5d2438d3aa5e526bb69c, type: 3}
    - time: 6.6666665
      value: {fileID: 21300000, guid: 94e9aca8344843a46ae3010d21031ebe, type: 3}
    - time: 6.75
      value: {fileID: 21300000, guid: d4280cd25e9066a4a91cf4e6eb565cff, type: 3}
    - time: 6.8333335
      value: {fileID: 21300000, guid: cea23a3db790bba41b80a29349aaab21, type: 3}
    - time: 6.9166665
      value: {fileID: 21300000, guid: e18e30d8163b49747985dcb7686f8f0d, type: 3}
    - time: 7
      value: {fileID: 21300000, guid: 6758eb4f46949174d8a968e4c5461d9c, type: 3}
    - time: 7.0833335
      value: {fileID: 21300000, guid: 692058b42fd668f46b77444f64ae8a5d, type: 3}
    - time: 7.1666665
      value: {fileID: 21300000, guid: f12a6ebd6a3103942ae62ed8f5c85c44, type: 3}
    - time: 7.25
      value: {fileID: 21300000, guid: fcff5d68b21f4444a8d35de539ba8533, type: 3}
    - time: 7.3333335
      value: {fileID: 21300000, guid: 78cc2bea935b5b646ab5465f053dc875, type: 3}
    - time: 7.4166665
      value: {fileID: 21300000, guid: 258d4ce2df09c244f89de30f1344b93d, type: 3}
    - time: 7.5
      value: {fileID: 21300000, guid: 75cc636347830de4c91f6ea4ffbcb296, type: 3}
    - time: 7.5833335
      value: {fileID: 21300000, guid: 4607cbf01bebe35469807d9d935f9a97, type: 3}
    - time: 7.6666665
      value: {fileID: 21300000, guid: 69958555fb3fae7438f4bbf4797cde05, type: 3}
    - time: 7.75
      value: {fileID: 21300000, guid: a3f5f3291cdf3c74fa4c38bc648ffbd9, type: 3}
    - time: 7.8333335
      value: {fileID: 21300000, guid: cf7106633ed6ca045b5e2fea4f5330e3, type: 3}
    - time: 7.9166665
      value: {fileID: 21300000, guid: b6e363497082c564d90153e378e99567, type: 3}
    - time: 8
      value: {fileID: 21300000, guid: 388340fa82dbd8a4dada9a8e099465bb, type: 3}
    - time: 8.083333
      value: {fileID: 21300000, guid: 832d259dc4acfa54b9ffff46bd91acf6, type: 3}
    - time: 8.166667
      value: {fileID: 21300000, guid: 2d9d4fd0010859a40a514a1a0a4c4312, type: 3}
    - time: 8.25
      value: {fileID: 21300000, guid: 9c2f6749f3cbe974faa5153de5a0b43d, type: 3}
    - time: 8.333333
      value: {fileID: 21300000, guid: 950ac8f99da2154468dfb1de87e52c68, type: 3}
    - time: 8.416667
      value: {fileID: 21300000, guid: c83150de8658b5e4d8a25efeb776037d, type: 3}
    - time: 8.5
      value: {fileID: 21300000, guid: 7d155546f03d30a43ae22df3a4c80363, type: 3}
    - time: 8.583333
      value: {fileID: 21300000, guid: 20e15fca8fa2c9a4591167b698df71c5, type: 3}
    - time: 8.666667
      value: {fileID: 21300000, guid: 1c37599823551ed42af8843c29aa4cfd, type: 3}
    - time: 8.75
      value: {fileID: 21300000, guid: 440f085e6fa2a6544891130e6746bed9, type: 3}
    - time: 8.833333
      value: {fileID: 21300000, guid: 5fd9bf1c4fadc8140b6c6b47b07c52bf, type: 3}
    - time: 8.916667
      value: {fileID: 21300000, guid: 8f1db7170ea022a4f86a8f04d971a57c, type: 3}
    - time: 9
      value: {fileID: 21300000, guid: ed069c8a62bc7cd46a3df3cb652d859d, type: 3}
    - time: 9.083333
      value: {fileID: 21300000, guid: 36be729c5f4fbfd4dae22c27ab52fd94, type: 3}
    - time: 9.166667
      value: {fileID: 21300000, guid: 4e50dcc7ef8c0c549b4e27c7cd66358c, type: 3}
    - time: 9.25
      value: {fileID: 21300000, guid: e22b31210c94a944b94ca6d036b2c56e, type: 3}
    - time: 9.333333
      value: {fileID: 21300000, guid: ebe472f93d73676439e28f81cf691f11, type: 3}
    - time: 9.416667
      value: {fileID: 21300000, guid: 78b3df9210efc294fb20db283f537830, type: 3}
    - time: 9.5
      value: {fileID: 21300000, guid: 9d3b6241df0e9eb428e808d7c3593db6, type: 3}
    - time: 9.583333
      value: {fileID: 21300000, guid: d263666bdc2e453459487c7a84820b5f, type: 3}
    - time: 9.666667
      value: {fileID: 21300000, guid: 58060c09929be6649b5d0f557967f332, type: 3}
    - time: 9.75
      value: {fileID: 21300000, guid: 49ed6a4bcb14ada46abc7ec558b7ddc3, type: 3}
    - time: 9.833333
      value: {fileID: 21300000, guid: 5c18cf3db8de54f47996024ab7625950, type: 3}
    - time: 9.916667
      value: {fileID: 21300000, guid: 0fa8b473204309d428d5debfbfe28b57, type: 3}
    - time: 10
      value: {fileID: 21300000, guid: 2cd52ff2bc0dbfb4c9ff25362dcebd1d, type: 3}
    - time: 10.083333
      value: {fileID: 21300000, guid: 4c9cf1127a8dbea4aaaf078492a0cd4c, type: 3}
    - time: 10.166667
      value: {fileID: 21300000, guid: 03206383ed14c8146bf3f2c4e4849ffc, type: 3}
    attribute: m_Sprite
    path: 
    classID: 212
    script: {fileID: 0}
  m_SampleRate: 12
  m_WrapMode: 0
  m_Bounds:
    m_Center: {x: 0, y: 0, z: 0}
    m_Extent: {x: 0, y: 0, z: 0}
  m_ClipBindingConstant:
    genericBindings:
    - serializedVersion: 2
      path: 0
      attribute: 0
      script: {fileID: 0}
      typeID: 212
      customType: 23
      isPPtrCurve: 1
    pptrCurveMapping:
    - {fileID: 21300000, guid: 9f3ff73cead243747ac92b9347d854f0, type: 3}
    - {fileID: 21300000, guid: 38dcda7ff4a81d843bbc519092ebe661, type: 3}
    - {fileID: 21300000, guid: dfe3ac9a5cb8de0428db42499dd5b298, type: 3}
    - {fileID: 21300000, guid: f48009b23b0fa124cbec673650d2aa9d, type: 3}
    - {fileID: 21300000, guid: 5c95d788e4dfd6141896b0dcdfe8d720, type: 3}
    - {fileID: 21300000, guid: cfbf6cbccf92be744a1d07e2ff7506a6, type: 3}
    - {fileID: 21300000, guid: f14c29c559cca5b49bd9c4e26c85aa5c, type: 3}
    - {fileID: 21300000, guid: ff66a8b0b3bdfb64780d464271d9c013, type: 3}
    - {fileID: 21300000, guid: e35d7947fe769c442bd21ff1221fa4a5, type: 3}
    - {fileID: 21300000, guid: 07d919ada57890a4b9e725b25fdcd276, type: 3}
    - {fileID: 21300000, guid: f27c9c7aa24629c409bb29d80c2ae557, type: 3}
    - {fileID: 21300000, guid: d56ebab98f500f74a98daaff1cc8fa84, type: 3}
    - {fileID: 21300000, guid: 7da843390a750d84099afaa38fc2f9ac, type: 3}
    - {fileID: 21300000, guid: 00a32131ba5f12240ad8f9452723fd42, type: 3}
    - {fileID: 21300000, guid: 4716afdc221eed44598d74474d0216c8, type: 3}
    - {fileID: 21300000, guid: 1f2067547c40fbe4686960d841f8372e, type: 3}
    - {fileID: 21300000, guid: e1f53ced21f41bf449265e02d355a539, type: 3}
    - {fileID: 21300000, guid: ba5a8d6ae33067d4d90a7f6cf0d36fd6, type: 3}
    - {fileID: 21300000, guid: 7ab397fefc2ee87429695858ac3a861d, type: 3}
    - {fileID: 21300000, guid: a7a261c15e2fd444f9d3560f43fdaa44, type: 3}
    - {fileID: 21300000, guid: 39f48a0162c6c654fb105ab6176707c0, type: 3}
    - {fileID: 21300000, guid: 4988ae4004477e24e8192896ee6bc416, type: 3}
    - {fileID: 21300000, guid: ad7fc4a3b5736df43bcc46893f72fb27, type: 3}
    - {fileID: 21300000, guid: 131068f5423fd094d98eb7da52fa216c, type: 3}
    - {fileID: 21300000, guid: 5d7d5caf9a85541409ad9e16f2c8fd75, type: 3}
    - {fileID: 21300000, guid: 77ec44a112f6431459b6c5d3a3c1655e, type: 3}
    - {fileID: 21300000, guid: 4a264de5072eab34dbe873b4c78634e8, type: 3}
    - {fileID: 21300000, guid: 0bdcfb1f103d015459333fc2839be1a5, type: 3}
    - {fileID: 21300000, guid: dcfc1d710f7a14d488ef52906938ab52, type: 3}
    - {fileID: 21300000, guid: 62527732690e68142bcab1aa941cdc84, type: 3}
    - {fileID: 21300000, guid: 0d0fbcabb6297c4448d8dc43bfce30d1, type: 3}
    - {fileID: 21300000, guid: d65113e9db3bfbd40b932cc25003354a, type: 3}
    - {fileID: 21300000, guid: ae14531a49c8d504697696ccce7d3be4, type: 3}
    - {fileID: 21300000, guid: eb6c1388a8e0dfd4fb37d305f82bf53d, type: 3}
    - {fileID: 21300000, guid: f33dbb29aee8c704fb0fa648fb71f2a8, type: 3}
    - {fileID: 21300000, guid: 799c138ba59fb954fb126e935debbcbd, type: 3}
    - {fileID: 21300000, guid: 5704b876794c3b045a5cc2ef06498fbc, type: 3}
    - {fileID: 21300000, guid: a485c9896d2373246be2c9e5d9ae9922, type: 3}
    - {fileID: 21300000, guid: 2ed92577f4a5e014d8597d3db7698f64, type: 3}
    - {fileID: 21300000, guid: 5848cea2f9375da4fa910ccce760d39c, type: 3}
    - {fileID: 21300000, guid: 0726a5769c30a3b4fb1a1cd7f9906df7, type: 3}
    - {fileID: 21300000, guid: 58d75ebd387f12e4797c11c57d5e14f9, type: 3}
    - {fileID: 21300000, guid: e73a15b177100614385db6e7d03ef6b3, type: 3}
    - {fileID: 21300000, guid: 116a73404634b1d4bb264fda8e408530, type: 3}
    - {fileID: 21300000, guid: 09270b4778d18e34a85e542c96a42652, type: 3}
    - {fileID: 21300000, guid: c86afcce74cc2314f990e98a30603fb6, type: 3}
    - {fileID: 21300000, guid: 6130114c14105164f8a7530a9c4f9799, type: 3}
    - {fileID: 21300000, guid: 44ad2743b6967e94aaa3c83a903883ec, type: 3}
    - {fileID: 21300000, guid: 64573fb4978d98d44bca3423bfd70f8f, type: 3}
    - {fileID: 21300000, guid: 690df3d7fcd00fa4d8a139a947a3bf11, type: 3}
    - {fileID: 21300000, guid: 4b6748e0bf691b94e93b4ef3a3c0149c, type: 3}
    - {fileID: 21300000, guid: 78c17adc515aea74aa147d2ecf67ff3e, type: 3}
    - {fileID: 21300000, guid: bccfb69da8a31324f937fbc3f8ec1674, type: 3}
    - {fileID: 21300000, guid: b44a8f81d30298443a0ac9af1c4009d5, type: 3}
    - {fileID: 21300000, guid: 6c2c4baf0395dae4dac24451afa5c418, type: 3}
    - {fileID: 21300000, guid: 36685de6a12c4de4ea2529eea8bed163, type: 3}
    - {fileID: 21300000, guid: 4a64942dec261b84b8274257db15887b, type: 3}
    - {fileID: 21300000, guid: 96bf96d2e67e18b488c72db8ba076fa4, type: 3}
    - {fileID: 21300000, guid: a86be5cec08051541a1c461dec1b97b7, type: 3}
    - {fileID: 21300000, guid: 8c00ca31ee9e9f34ea9561baffa29e7c, type: 3}
    - {fileID: 21300000, guid: 8725ac0b34fae5648b400df7f47f58d1, type: 3}
    - {fileID: 21300000, guid: f28659b2195b97e4d8d4c408c1ff1ca2, type: 3}
    - {fileID: 21300000, guid: 84c9c0e02ebf5be44b5b61720ab1dc43, type: 3}
    - {fileID: 21300000, guid: 3b9edfa6157c9cf48a3236817edd792d, type: 3}
    - {fileID: 21300000, guid: 8703b403dfa67dc4bad7494da0af6e31, type: 3}
    - {fileID: 21300000, guid: f37908c48491aa74da2096e72e8973b0, type: 3}
    - {fileID: 21300000, guid: 028ba52480709de4b8ed86b0307c3f9e, type: 3}
    - {fileID: 21300000, guid: acf81c02e6d19374ba5fb58208d78146, type: 3}
    - {fileID: 21300000, guid: 35805342e45e79d45b0c21e1e24ffefb, type: 3}
    - {fileID: 21300000, guid: 00912047aaa99944e8cfe8dd554c053e, type: 3}
    - {fileID: 21300000, guid: ca408a5162323f5409c9c76213fc27ee, type: 3}
    - {fileID: 21300000, guid: e55ca02e49ca3384b895c4588311c680, type: 3}
    - {fileID: 21300000, guid: 05c26e46fb42fea4bbcb4056b0d80f56, type: 3}
    - {fileID: 21300000, guid: a01de7d2ccb283743a3693c327a021d9, type: 3}
    - {fileID: 21300000, guid: c6ac077d53fbc344d8ecafc32c4b8191, type: 3}
    - {fileID: 21300000, guid: 6594867519a486e48b3c5664bde2ccb3, type: 3}
    - {fileID: 21300000, guid: aab9ea667bd70ea4187b203228c51207, type: 3}
    - {fileID: 21300000, guid: 391d7ececba8128408275ee1fcc6f339, type: 3}
    - {fileID: 21300000, guid: 306290b9bb4aecb498fa32ef49bb3081, type: 3}
    - {fileID: 21300000, guid: c1c0a631a00f5d2438d3aa5e526bb69c, type: 3}
    - {fileID: 21300000, guid: 94e9aca8344843a46ae3010d21031ebe, type: 3}
    - {fileID: 21300000, guid: d4280cd25e9066a4a91cf4e6eb565cff, type: 3}
    - {fileID: 21300000, guid: cea23a3db790bba41b80a29349aaab21, type: 3}
    - {fileID: 21300000, guid: e18e30d8163b49747985dcb7686f8f0d, type: 3}
    - {fileID: 21300000, guid: 6758eb4f46949174d8a968e4c5461d9c, type: 3}
    - {fileID: 21300000, guid: 692058b42fd668f46b77444f64ae8a5d, type: 3}
    - {fileID: 21300000, guid: f12a6ebd6a3103942ae62ed8f5c85c44, type: 3}
    - {fileID: 21300000, guid: fcff5d68b21f4444a8d35de539ba8533, type: 3}
    - {fileID: 21300000, guid: 78cc2bea935b5b646ab5465f053dc875, type: 3}
    - {fileID: 21300000, guid: 258d4ce2df09c244f89de30f1344b93d, type: 3}
    - {fileID: 21300000, guid: 75cc636347830de4c91f6ea4ffbcb296, type: 3}
    - {fileID: 21300000, guid: 4607cbf01bebe35469807d9d935f9a97, type: 3}
    - {fileID: 21300000, guid: 69958555fb3fae7438f4bbf4797cde05, type: 3}
    - {fileID: 21300000, guid: a3f5f3291cdf3c74fa4c38bc648ffbd9, type: 3}
    - {fileID: 21300000, guid: cf7106633ed6ca045b5e2fea4f5330e3, type: 3}
    - {fileID: 21300000, guid: b6e363497082c564d90153e378e99567, type: 3}
    - {fileID: 21300000, guid: 388340fa82dbd8a4dada9a8e099465bb, type: 3}
    - {fileID: 21300000, guid: 832d259dc4acfa54b9ffff46bd91acf6, type: 3}
    - {fileID: 21300000, guid: 2d9d4fd0010859a40a514a1a0a4c4312, type: 3}
    - {fileID: 21300000, guid: 9c2f6749f3cbe974faa5153de5a0b43d, type: 3}
    - {fileID: 21300000, guid: 950ac8f99da2154468dfb1de87e52c68, type: 3}
    - {fileID: 21300000, guid: c83150de8658b5e4d8a25efeb776037d, type: 3}
    - {fileID: 21300000, guid: 7d155546f03d30a43ae22df3a4c80363, type: 3}
    - {fileID: 21300000, guid: 20e15fca8fa2c9a4591167b698df71c5, type: 3}
    - {fileID: 21300000, guid: 1c37599823551ed42af8843c29aa4cfd, type: 3}
    - {fileID: 21300000, guid: 440f085e6fa2a6544891130e6746bed9, type: 3}
    - {fileID: 21300000, guid: 5fd9bf1c4fadc8140b6c6b47b07c52bf, type: 3}
    - {fileID: 21300000, guid: 8f1db7170ea022a4f86a8f04d971a57c, type: 3}
    - {fileID: 21300000, guid: ed069c8a62bc7cd46a3df3cb652d859d, type: 3}
    - {fileID: 21300000, guid: 36be729c5f4fbfd4dae22c27ab52fd94, type: 3}
    - {fileID: 21300000, guid: 4e50dcc7ef8c0c549b4e27c7cd66358c, type: 3}
    - {fileID: 21300000, guid: e22b31210c94a944b94ca6d036b2c56e, type: 3}
    - {fileID: 21300000, guid: ebe472f93d73676439e28f81cf691f11, type: 3}
    - {fileID: 21300000, guid: 78b3df9210efc294fb20db283f537830, type: 3}
    - {fileID: 21300000, guid: 9d3b6241df0e9eb428e808d7c3593db6, type: 3}
    - {fileID: 21300000, guid: d263666bdc2e453459487c7a84820b5f, type: 3}
    - {fileID: 21300000, guid: 58060c09929be6649b5d0f557967f332, type: 3}
    - {fileID: 21300000, guid: 49ed6a4bcb14ada46abc7ec558b7ddc3, type: 3}
    - {fileID: 21300000, guid: 5c18cf3db8de54f47996024ab7625950, type: 3}
    - {fileID: 21300000, guid: 0fa8b473204309d428d5debfbfe28b57, type: 3}
    - {fileID: 21300000, guid: 2cd52ff2bc0dbfb4c9ff25362dcebd1d, type: 3}
    - {fileID: 21300000, guid: 4c9cf1127a8dbea4aaaf078492a0cd4c, type: 3}
    - {fileID: 21300000, guid: 03206383ed14c8146bf3f2c4e4849ffc, type: 3}
  m_AnimationClipSettings:
    serializedVersion: 2
    m_AdditiveReferencePoseClip: {fileID: 0}
    m_AdditiveReferencePoseTime: 0
    m_StartTime: 0
    m_StopTime: 10.25
    m_OrientationOffsetY: 0
    m_Level: 0
    m_CycleOffset: 0
    m_HasAdditiveReferencePose: 0
    m_LoopTime: 1
    m_LoopBlend: 0
    m_LoopBlendOrientation: 0
    m_LoopBlendPositionY: 0
    m_LoopBlendPositionXZ: 0
    m_KeepOriginalOrientation: 0
    m_KeepOriginalPositionY: 1
    m_KeepOriginalPositionXZ: 0
    m_HeightFromFeet: 0
    m_Mirror: 0
  m_EditorCurves: []
  m_EulerEditorCurves: []
  m_HasGenericRootTransform: 0
  m_HasMotionFloatCurves: 0
  m_GenerateMotionCurves: 0
  m_Events: []
