%YAML 1.1
%TAG !u! tag:unity3d.com,2011:
--- !u!74 &7400000
AnimationClip:
  m_ObjectHideFlags: 0
  m_CorrespondingSourceObject: {fileID: 0}
  m_PrefabInternal: {fileID: 0}
  m_Name: Image_ChargeShipBar
  serializedVersion: 6
  m_Legacy: 0
  m_Compressed: 0
  m_UseHighQualityCurve: 1
  m_RotationCurves: []
  m_CompressedRotationCurves: []
  m_EulerCurves: []
  m_PositionCurves: []
  m_ScaleCurves: []
  m_FloatCurves: []
  m_PPtrCurves:
  - curve:
    - time: 0
      value: {fileID: 21300000, guid: 483f4202f80a15040ac9f84153f8ff07, type: 3}
    - time: 0.083333336
      value: {fileID: 21300000, guid: b3d70a34fed2ad7438946064bfdaefe2, type: 3}
    - time: 0.16666667
      value: {fileID: 21300000, guid: e2af707c671b1bc468e8903904b117f4, type: 3}
    - time: 0.25
      value: {fileID: 21300000, guid: a6276ba3067088b47b2ddc4119f4e02d, type: 3}
    - time: 0.33333334
      value: {fileID: 21300000, guid: deed937d8bc2a4a4ebb2b6387fa6ac12, type: 3}
    - time: 0.41666666
      value: {fileID: 21300000, guid: 64640657e5a651d498b73c1f792994cd, type: 3}
    - time: 0.5
      value: {fileID: 21300000, guid: 31a01ea8ea00e97428fd10aa609713de, type: 3}
    - time: 0.5833333
      value: {fileID: 21300000, guid: 539bfc570469c8c4c907a0f329c4f8bf, type: 3}
    - time: 0.6666667
      value: {fileID: 21300000, guid: f05d768cfc5ccb046bb6219000487e84, type: 3}
    - time: 0.75
      value: {fileID: 21300000, guid: 3a5a0edf25f8d02458933b37bfcdd486, type: 3}
    - time: 0.8333333
      value: {fileID: 21300000, guid: 9844b54cd2d037b4caf802bda3cde4a4, type: 3}
    - time: 0.9166667
      value: {fileID: 21300000, guid: 68ea0c2c022c68549b777b9de30ab35f, type: 3}
    - time: 1
      value: {fileID: 21300000, guid: c2e65e2a110cd9a41b55b7325f531bc7, type: 3}
    - time: 1.0833334
      value: {fileID: 21300000, guid: 14c210abdc1036743b7521a4befa59bd, type: 3}
    - time: 1.1666666
      value: {fileID: 21300000, guid: dd018cb72bbb336498af98d16a6d43b6, type: 3}
    - time: 1.25
      value: {fileID: 21300000, guid: a77712ec457230a45aee9f4768505a46, type: 3}
    - time: 1.3333334
      value: {fileID: 21300000, guid: 69a2b7fb689aa5f48b11ae76815b9d6d, type: 3}
    - time: 1.4166666
      value: {fileID: 21300000, guid: d7b10b7319b5d7949a5c0431d226fc2d, type: 3}
    - time: 1.5
      value: {fileID: 21300000, guid: 54fd58b1c179abd42a9a8d778eaca72d, type: 3}
    - time: 1.5833334
      value: {fileID: 21300000, guid: 2a53cc616eddb734db2a8bb964a77542, type: 3}
    - time: 1.6666666
      value: {fileID: 21300000, guid: 697c8e2bec989ad4ca8491e7e18577e9, type: 3}
    - time: 1.75
      value: {fileID: 21300000, guid: 9c8efcb7d60048348bf1a7ce338cec8d, type: 3}
    - time: 1.8333334
      value: {fileID: 21300000, guid: 5e2208a45d9e2c741a98b47766c8483c, type: 3}
    - time: 1.9166666
      value: {fileID: 21300000, guid: 2ffc7cb550bfecd41bd50e8d0d182e0f, type: 3}
    - time: 2
      value: {fileID: 21300000, guid: 288775f585120f34caee625c273d21b4, type: 3}
    - time: 2.0833333
      value: {fileID: 21300000, guid: 434e8aee1e299014194566acf3ad6311, type: 3}
    - time: 2.1666667
      value: {fileID: 21300000, guid: ee8f89596f24d4d4b95437e51602fe6c, type: 3}
    - time: 2.25
      value: {fileID: 21300000, guid: a0b3573647f21de40bdbda80a092d62b, type: 3}
    - time: 2.3333333
      value: {fileID: 21300000, guid: a89ca9d4e13c67a4aaf8701aae957e1f, type: 3}
    - time: 2.4166667
      value: {fileID: 21300000, guid: 7693ae7e27b194e4e980d05f7e65fa35, type: 3}
    - time: 2.5
      value: {fileID: 21300000, guid: 34afd3451fb12d5458a7e2ba8eb85b58, type: 3}
    - time: 2.5833333
      value: {fileID: 21300000, guid: 40f81030cc278734198d4932f10d8dca, type: 3}
    - time: 2.6666667
      value: {fileID: 21300000, guid: a9c3f561966d85648b4cb42eaf4b006e, type: 3}
    - time: 2.75
      value: {fileID: 21300000, guid: a7ff8270a09095c43b7dfdf7612e88d0, type: 3}
    - time: 2.8333333
      value: {fileID: 21300000, guid: 1a93cebdd6d6c7b44ae514d4d51a6929, type: 3}
    - time: 2.9166667
      value: {fileID: 21300000, guid: e0b4ef94b8be50d4a842ba2cd0bc1e80, type: 3}
    - time: 3
      value: {fileID: 21300000, guid: 5f2a04482cffff946a6527b563cd84b4, type: 3}
    - time: 3.0833333
      value: {fileID: 21300000, guid: a78a035d087c6a843a78b3d5da0f0eb4, type: 3}
    - time: 3.1666667
      value: {fileID: 21300000, guid: 1337874090338ce4abdcef5b661022f8, type: 3}
    - time: 3.25
      value: {fileID: 21300000, guid: 1a196ee8bb35ba445ba25013d1fded0d, type: 3}
    - time: 3.3333333
      value: {fileID: 21300000, guid: af8091c5e93b5e24aaefbf73bfa6392d, type: 3}
    - time: 3.4166667
      value: {fileID: 21300000, guid: 85e89ea4ba1489c4696809aee5d19714, type: 3}
    - time: 3.5
      value: {fileID: 21300000, guid: 63c15e26eb72f304aa33fd619c423e0b, type: 3}
    - time: 3.5833333
      value: {fileID: 21300000, guid: 62e88cece5f01a84aa9c604ccf63c55d, type: 3}
    - time: 3.6666667
      value: {fileID: 21300000, guid: fef8385d912d9164f85622751941ce3c, type: 3}
    - time: 3.75
      value: {fileID: 21300000, guid: dfdcfc5e31c86a747b3fa9031edd52f2, type: 3}
    - time: 3.8333333
      value: {fileID: 21300000, guid: 56d6864e37addc9429c8a6d258f393d7, type: 3}
    - time: 3.9166667
      value: {fileID: 21300000, guid: 1a054facccf523e4a9a90354d8e0fe42, type: 3}
    - time: 4
      value: {fileID: 21300000, guid: d40414424d506b749a25e04350deeef3, type: 3}
    - time: 4.0833335
      value: {fileID: 21300000, guid: 61e22bf88b752f041a1461c5ff5adbb0, type: 3}
    - time: 4.1666665
      value: {fileID: 21300000, guid: 945554ec976b65f4c852a4eaad42afb1, type: 3}
    - time: 4.25
      value: {fileID: 21300000, guid: 225f007ca5dad124d97fbb2762435b59, type: 3}
    - time: 4.3333335
      value: {fileID: 21300000, guid: 8e56d56992d51c74ebab15935aae1834, type: 3}
    - time: 4.4166665
      value: {fileID: 21300000, guid: f1616350bc1393045b8a19b56c44deed, type: 3}
    - time: 4.5
      value: {fileID: 21300000, guid: b627f6d8757135d4985e50a2813b2d77, type: 3}
    - time: 4.5833335
      value: {fileID: 21300000, guid: f2241418714bbbe4cbe33f8019d0da9b, type: 3}
    - time: 4.6666665
      value: {fileID: 21300000, guid: 65233abbeb304574a8281a69ea455584, type: 3}
    - time: 4.75
      value: {fileID: 21300000, guid: 4e3f26997545f644eb977a55d8c4a19d, type: 3}
    - time: 4.8333335
      value: {fileID: 21300000, guid: 0d858d5a3deb5cd498754e025cdd265b, type: 3}
    - time: 4.9166665
      value: {fileID: 21300000, guid: bb1b1952fca944443a1ee6266249c25f, type: 3}
    - time: 5
      value: {fileID: 21300000, guid: fb496d14c2524ae47b9ffb1ed7937300, type: 3}
    - time: 5.0833335
      value: {fileID: 21300000, guid: 0abaacc254a3ccd4fa671b80fc78c8e0, type: 3}
    - time: 5.1666665
      value: {fileID: 21300000, guid: 24a7730048c84574bb6e2232a34b6e8f, type: 3}
    - time: 5.25
      value: {fileID: 21300000, guid: 0e944bd28ffe5b44dab13a4e5c457f01, type: 3}
    - time: 5.3333335
      value: {fileID: 21300000, guid: 46db1c6ccda70cf4cb1dc576c7d14c40, type: 3}
    - time: 5.4166665
      value: {fileID: 21300000, guid: 5751b5034b6f35a47a5cd4215287b88d, type: 3}
    - time: 5.5
      value: {fileID: 21300000, guid: 1671949a7cff06d499a84f471dbdde32, type: 3}
    - time: 5.5833335
      value: {fileID: 21300000, guid: 2472d5675fb96ac4f9f860ff15ce9858, type: 3}
    - time: 5.6666665
      value: {fileID: 21300000, guid: d41eff73364082d4fbe743efec33fa2d, type: 3}
    - time: 5.75
      value: {fileID: 21300000, guid: b3ee0897e9c0fd249b5ff249093764e8, type: 3}
    - time: 5.8333335
      value: {fileID: 21300000, guid: c6fe69f0cfe4ba44b8c4face9b9abac4, type: 3}
    - time: 5.9166665
      value: {fileID: 21300000, guid: 6c7bfced16e08c44a9c0f880f1a1a176, type: 3}
    - time: 6
      value: {fileID: 21300000, guid: b596ad3ea0986454dbad331285209cc6, type: 3}
    - time: 6.0833335
      value: {fileID: 21300000, guid: 7732522d8deaadd47ab23efc357875a1, type: 3}
    - time: 6.1666665
      value: {fileID: 21300000, guid: 69c27f6092dbc3e449009f24e71a65a7, type: 3}
    - time: 6.25
      value: {fileID: 21300000, guid: a608c090266dd4a42b15b519b118eabd, type: 3}
    - time: 6.3333335
      value: {fileID: 21300000, guid: 1f1a32228e62d13438b467d04be24e68, type: 3}
    - time: 6.4166665
      value: {fileID: 21300000, guid: 02874e140e5597d48a4654d660f06360, type: 3}
    - time: 6.5
      value: {fileID: 21300000, guid: 348050d1b78bbb545a96953cc42f3386, type: 3}
    - time: 6.5833335
      value: {fileID: 21300000, guid: 528521762e4cbd14c82df78b5742e37a, type: 3}
    - time: 6.6666665
      value: {fileID: 21300000, guid: d1b56b131877cc447bea60bea48d61dd, type: 3}
    - time: 6.75
      value: {fileID: 21300000, guid: 6aefd9ea3ed719343824c29ac2d7c3ae, type: 3}
    - time: 6.8333335
      value: {fileID: 21300000, guid: 77ffa45662c0f2543bb4cacda0bd6808, type: 3}
    - time: 6.9166665
      value: {fileID: 21300000, guid: 69dfb89e60e18674c95a0c7fb5b5e3e4, type: 3}
    - time: 7
      value: {fileID: 21300000, guid: 1c7b8ee62ba2d5442885cc8e3faa37f1, type: 3}
    - time: 7.0833335
      value: {fileID: 21300000, guid: af741e15e7ee6a249832691d56b47fcf, type: 3}
    - time: 7.1666665
      value: {fileID: 21300000, guid: 21d9c4d9ddcbfd749aa3963fd14e5deb, type: 3}
    - time: 7.25
      value: {fileID: 21300000, guid: 2d0334a3bf889b54d9968fbaa47da0d0, type: 3}
    - time: 7.3333335
      value: {fileID: 21300000, guid: 7d0acf714de566049b4b59965443dab2, type: 3}
    - time: 7.4166665
      value: {fileID: 21300000, guid: f6d9ad645273e444d9c53d4f67fa9aec, type: 3}
    - time: 7.5
      value: {fileID: 21300000, guid: adc1c794dd20c4a4f92807c54c87eb83, type: 3}
    - time: 7.5833335
      value: {fileID: 21300000, guid: e615fbb001e9aa542ae0145d06ceded4, type: 3}
    - time: 7.6666665
      value: {fileID: 21300000, guid: e51e5e69af178d2489aab60145eedb29, type: 3}
    - time: 7.75
      value: {fileID: 21300000, guid: 6699dd95729e6d246807992705525e66, type: 3}
    - time: 7.8333335
      value: {fileID: 21300000, guid: 53fd8d8bdf3842740be5149d574d88be, type: 3}
    - time: 7.9166665
      value: {fileID: 21300000, guid: a7ae13b63aa8b2843bc312a971518d17, type: 3}
    - time: 8
      value: {fileID: 21300000, guid: 8724a090be2222f40912a16c15f63724, type: 3}
    - time: 8.083333
      value: {fileID: 21300000, guid: bad5e0b9e574dcd41820556acb2408d8, type: 3}
    - time: 8.166667
      value: {fileID: 21300000, guid: 6c8773d3320b3dd4fbe97fa7a1a80e89, type: 3}
    - time: 8.25
      value: {fileID: 21300000, guid: f8ab8ecd0a5be584fa2438251e670a47, type: 3}
    - time: 8.333333
      value: {fileID: 21300000, guid: a38e8f8895fb5654787665631a352ab4, type: 3}
    - time: 8.416667
      value: {fileID: 21300000, guid: 469539f0db0db0c408382bc6ba30274f, type: 3}
    - time: 8.5
      value: {fileID: 21300000, guid: dbe5335a3d1d4fe44aed6821bb91d8ba, type: 3}
    - time: 8.583333
      value: {fileID: 21300000, guid: 3a83f023670da644eb025bd522705df7, type: 3}
    - time: 8.666667
      value: {fileID: 21300000, guid: 5e11f776b4f4793489b9ec4679258797, type: 3}
    - time: 8.75
      value: {fileID: 21300000, guid: ccfbe43d2237a1f42b09014733470d2f, type: 3}
    - time: 8.833333
      value: {fileID: 21300000, guid: 5c35f1ecddccafc4f9611a7b294de0b1, type: 3}
    - time: 8.916667
      value: {fileID: 21300000, guid: d4a95a1ea903bf440abcdd7385795add, type: 3}
    - time: 9
      value: {fileID: 21300000, guid: 4fdb50faf2fccc74ea80169b3054997b, type: 3}
    - time: 9.083333
      value: {fileID: 21300000, guid: 467e2cb3be7ded747904a2ae7da088a5, type: 3}
    - time: 9.166667
      value: {fileID: 21300000, guid: bf23793485b3b75439b99ad7d8820748, type: 3}
    - time: 9.25
      value: {fileID: 21300000, guid: ede769542a7b3d34396228265b4c0064, type: 3}
    - time: 9.333333
      value: {fileID: 21300000, guid: cbff5b621bdd1e64d994a8339b3ea44a, type: 3}
    - time: 9.416667
      value: {fileID: 21300000, guid: e8d008f17f201bd4cbded334d9e69b5a, type: 3}
    - time: 9.5
      value: {fileID: 21300000, guid: 2f66c95d4e3a1224ba723cd97f5be658, type: 3}
    - time: 9.583333
      value: {fileID: 21300000, guid: 9452fb6f9be6c8248b0e97560df0b82b, type: 3}
    - time: 9.666667
      value: {fileID: 21300000, guid: 331d7dccb9983e443b5dde5693b12eed, type: 3}
    - time: 9.75
      value: {fileID: 21300000, guid: e8dcaf9166a0f1f448dcaefdd6411da7, type: 3}
    - time: 9.833333
      value: {fileID: 21300000, guid: 36db13d94cac39b4b97a13182fb7ce72, type: 3}
    - time: 9.916667
      value: {fileID: 21300000, guid: 4d375c4c422c5e54c860226737c5dfd0, type: 3}
    - time: 10
      value: {fileID: 21300000, guid: 46c6c1c560c98634bb1fc344cec835d7, type: 3}
    - time: 10.083333
      value: {fileID: 21300000, guid: 4b77c10015ce1544397a5a3abadde1d4, type: 3}
    - time: 10.166667
      value: {fileID: 21300000, guid: a8d73429360eea7459fa7bb1ab8e6195, type: 3}
    - time: 10.25
      value: {fileID: 21300000, guid: e993cf5d8d03d4a4f90896b8ca58c58d, type: 3}
    - time: 10.333333
      value: {fileID: 21300000, guid: 3bc7280e0a807224b82036ffecd1251d, type: 3}
    - time: 10.416667
      value: {fileID: 21300000, guid: 8e861b708407ccf45a1b887e7adf6a44, type: 3}
    - time: 10.5
      value: {fileID: 21300000, guid: 4a1855db61c4481459b2649f409707f0, type: 3}
    - time: 10.583333
      value: {fileID: 21300000, guid: df3570efc3809ca4d9f773396eeb5f59, type: 3}
    - time: 10.666667
      value: {fileID: 21300000, guid: bdd572bda028ae249b7fe92f82153986, type: 3}
    - time: 10.75
      value: {fileID: 21300000, guid: 7ca9172dc89b43c42aaf813c20a7e6ba, type: 3}
    - time: 10.833333
      value: {fileID: 21300000, guid: f2b7d444e12dd29489464e927bedc3df, type: 3}
    - time: 10.916667
      value: {fileID: 21300000, guid: cf7adce815bcf3a40b603d88dcda3b98, type: 3}
    - time: 11
      value: {fileID: 21300000, guid: f044e276c3e406b4cba5aa504103e29d, type: 3}
    - time: 11.083333
      value: {fileID: 21300000, guid: c7c937396d6dcd34cb3b7f51f4ebaa69, type: 3}
    - time: 11.166667
      value: {fileID: 21300000, guid: 9a0b9084af471234d94d07958fad9662, type: 3}
    - time: 11.25
      value: {fileID: 21300000, guid: 30fbd8bc5e395764ba00e5ba8c0b1f76, type: 3}
    - time: 11.333333
      value: {fileID: 21300000, guid: 3f188959b1a58c841bd423f384f4f72f, type: 3}
    - time: 11.416667
      value: {fileID: 21300000, guid: a0e9f7a6030a9754a9278e61a12d48ac, type: 3}
    - time: 11.5
      value: {fileID: 21300000, guid: 3bdc24a3e2c4a2745bfc5d4465df1161, type: 3}
    - time: 11.583333
      value: {fileID: 21300000, guid: a1b27ea327b0ba84599d8cbc0083441e, type: 3}
    - time: 11.666667
      value: {fileID: 21300000, guid: 6ed7a9a3679a26842afc74e7926fee6f, type: 3}
    - time: 11.75
      value: {fileID: 21300000, guid: 747ed464489189e4a96de01ecaf49516, type: 3}
    - time: 11.833333
      value: {fileID: 21300000, guid: 4cbac5bcd92ae71429368792c5b5baa1, type: 3}
    - time: 11.916667
      value: {fileID: 21300000, guid: 207dfb1de9b06624688209010ee66905, type: 3}
    - time: 12
      value: {fileID: 21300000, guid: 701e7f242a261f14782ee7e3743d6c08, type: 3}
    - time: 12.083333
      value: {fileID: 21300000, guid: 9fdc089b0345d8e428d10dcf14ab5d73, type: 3}
    - time: 12.166667
      value: {fileID: 21300000, guid: b636dba9bf957df48a50b20f254b5dd1, type: 3}
    - time: 12.25
      value: {fileID: 21300000, guid: c6066757f8baa7a46966455f24a5b99f, type: 3}
    - time: 12.333333
      value: {fileID: 21300000, guid: 382477766d8030c4bb155c63f88d04de, type: 3}
    - time: 12.416667
      value: {fileID: 21300000, guid: 9f5b5ff4e38559d44865f352b60d94e6, type: 3}
    - time: 12.5
      value: {fileID: 21300000, guid: 3b6c6e50088fc014d8b2260b755b3bbf, type: 3}
    - time: 12.583333
      value: {fileID: 21300000, guid: 871c93bd8d50e424f80fca4271faf9fe, type: 3}
    - time: 12.666667
      value: {fileID: 21300000, guid: 31c348603651f4d44b890a4960040ad0, type: 3}
    - time: 12.75
      value: {fileID: 21300000, guid: 6dbe064ed4380e04db609a4ff7de4577, type: 3}
    - time: 12.833333
      value: {fileID: 21300000, guid: 8e64b4c5e42ff0a48a18a7de8ed45fb6, type: 3}
    - time: 12.916667
      value: {fileID: 21300000, guid: 62ec86adbfa3bc142919d052d5e58878, type: 3}
    - time: 13
      value: {fileID: 21300000, guid: f2ba9aedf1551c149b185a626f1720f2, type: 3}
    - time: 13.083333
      value: {fileID: 21300000, guid: 9974050b81e987d4baad4a0a79b7d544, type: 3}
    - time: 13.166667
      value: {fileID: 21300000, guid: 98e85ccb4e0891c46a44e18dff1af617, type: 3}
    attribute: m_Sprite
    path: 
    classID: 212
    script: {fileID: 0}
  m_SampleRate: 12
  m_WrapMode: 0
  m_Bounds:
    m_Center: {x: 0, y: 0, z: 0}
    m_Extent: {x: 0, y: 0, z: 0}
  m_ClipBindingConstant:
    genericBindings:
    - serializedVersion: 2
      path: 0
      attribute: 0
      script: {fileID: 0}
      typeID: 212
      customType: 23
      isPPtrCurve: 1
    pptrCurveMapping:
    - {fileID: 21300000, guid: 483f4202f80a15040ac9f84153f8ff07, type: 3}
    - {fileID: 21300000, guid: b3d70a34fed2ad7438946064bfdaefe2, type: 3}
    - {fileID: 21300000, guid: e2af707c671b1bc468e8903904b117f4, type: 3}
    - {fileID: 21300000, guid: a6276ba3067088b47b2ddc4119f4e02d, type: 3}
    - {fileID: 21300000, guid: deed937d8bc2a4a4ebb2b6387fa6ac12, type: 3}
    - {fileID: 21300000, guid: 64640657e5a651d498b73c1f792994cd, type: 3}
    - {fileID: 21300000, guid: 31a01ea8ea00e97428fd10aa609713de, type: 3}
    - {fileID: 21300000, guid: 539bfc570469c8c4c907a0f329c4f8bf, type: 3}
    - {fileID: 21300000, guid: f05d768cfc5ccb046bb6219000487e84, type: 3}
    - {fileID: 21300000, guid: 3a5a0edf25f8d02458933b37bfcdd486, type: 3}
    - {fileID: 21300000, guid: 9844b54cd2d037b4caf802bda3cde4a4, type: 3}
    - {fileID: 21300000, guid: 68ea0c2c022c68549b777b9de30ab35f, type: 3}
    - {fileID: 21300000, guid: c2e65e2a110cd9a41b55b7325f531bc7, type: 3}
    - {fileID: 21300000, guid: 14c210abdc1036743b7521a4befa59bd, type: 3}
    - {fileID: 21300000, guid: dd018cb72bbb336498af98d16a6d43b6, type: 3}
    - {fileID: 21300000, guid: a77712ec457230a45aee9f4768505a46, type: 3}
    - {fileID: 21300000, guid: 69a2b7fb689aa5f48b11ae76815b9d6d, type: 3}
    - {fileID: 21300000, guid: d7b10b7319b5d7949a5c0431d226fc2d, type: 3}
    - {fileID: 21300000, guid: 54fd58b1c179abd42a9a8d778eaca72d, type: 3}
    - {fileID: 21300000, guid: 2a53cc616eddb734db2a8bb964a77542, type: 3}
    - {fileID: 21300000, guid: 697c8e2bec989ad4ca8491e7e18577e9, type: 3}
    - {fileID: 21300000, guid: 9c8efcb7d60048348bf1a7ce338cec8d, type: 3}
    - {fileID: 21300000, guid: 5e2208a45d9e2c741a98b47766c8483c, type: 3}
    - {fileID: 21300000, guid: 2ffc7cb550bfecd41bd50e8d0d182e0f, type: 3}
    - {fileID: 21300000, guid: 288775f585120f34caee625c273d21b4, type: 3}
    - {fileID: 21300000, guid: 434e8aee1e299014194566acf3ad6311, type: 3}
    - {fileID: 21300000, guid: ee8f89596f24d4d4b95437e51602fe6c, type: 3}
    - {fileID: 21300000, guid: a0b3573647f21de40bdbda80a092d62b, type: 3}
    - {fileID: 21300000, guid: a89ca9d4e13c67a4aaf8701aae957e1f, type: 3}
    - {fileID: 21300000, guid: 7693ae7e27b194e4e980d05f7e65fa35, type: 3}
    - {fileID: 21300000, guid: 34afd3451fb12d5458a7e2ba8eb85b58, type: 3}
    - {fileID: 21300000, guid: 40f81030cc278734198d4932f10d8dca, type: 3}
    - {fileID: 21300000, guid: a9c3f561966d85648b4cb42eaf4b006e, type: 3}
    - {fileID: 21300000, guid: a7ff8270a09095c43b7dfdf7612e88d0, type: 3}
    - {fileID: 21300000, guid: 1a93cebdd6d6c7b44ae514d4d51a6929, type: 3}
    - {fileID: 21300000, guid: e0b4ef94b8be50d4a842ba2cd0bc1e80, type: 3}
    - {fileID: 21300000, guid: 5f2a04482cffff946a6527b563cd84b4, type: 3}
    - {fileID: 21300000, guid: a78a035d087c6a843a78b3d5da0f0eb4, type: 3}
    - {fileID: 21300000, guid: 1337874090338ce4abdcef5b661022f8, type: 3}
    - {fileID: 21300000, guid: 1a196ee8bb35ba445ba25013d1fded0d, type: 3}
    - {fileID: 21300000, guid: af8091c5e93b5e24aaefbf73bfa6392d, type: 3}
    - {fileID: 21300000, guid: 85e89ea4ba1489c4696809aee5d19714, type: 3}
    - {fileID: 21300000, guid: 63c15e26eb72f304aa33fd619c423e0b, type: 3}
    - {fileID: 21300000, guid: 62e88cece5f01a84aa9c604ccf63c55d, type: 3}
    - {fileID: 21300000, guid: fef8385d912d9164f85622751941ce3c, type: 3}
    - {fileID: 21300000, guid: dfdcfc5e31c86a747b3fa9031edd52f2, type: 3}
    - {fileID: 21300000, guid: 56d6864e37addc9429c8a6d258f393d7, type: 3}
    - {fileID: 21300000, guid: 1a054facccf523e4a9a90354d8e0fe42, type: 3}
    - {fileID: 21300000, guid: d40414424d506b749a25e04350deeef3, type: 3}
    - {fileID: 21300000, guid: 61e22bf88b752f041a1461c5ff5adbb0, type: 3}
    - {fileID: 21300000, guid: 945554ec976b65f4c852a4eaad42afb1, type: 3}
    - {fileID: 21300000, guid: 225f007ca5dad124d97fbb2762435b59, type: 3}
    - {fileID: 21300000, guid: 8e56d56992d51c74ebab15935aae1834, type: 3}
    - {fileID: 21300000, guid: f1616350bc1393045b8a19b56c44deed, type: 3}
    - {fileID: 21300000, guid: b627f6d8757135d4985e50a2813b2d77, type: 3}
    - {fileID: 21300000, guid: f2241418714bbbe4cbe33f8019d0da9b, type: 3}
    - {fileID: 21300000, guid: 65233abbeb304574a8281a69ea455584, type: 3}
    - {fileID: 21300000, guid: 4e3f26997545f644eb977a55d8c4a19d, type: 3}
    - {fileID: 21300000, guid: 0d858d5a3deb5cd498754e025cdd265b, type: 3}
    - {fileID: 21300000, guid: bb1b1952fca944443a1ee6266249c25f, type: 3}
    - {fileID: 21300000, guid: fb496d14c2524ae47b9ffb1ed7937300, type: 3}
    - {fileID: 21300000, guid: 0abaacc254a3ccd4fa671b80fc78c8e0, type: 3}
    - {fileID: 21300000, guid: 24a7730048c84574bb6e2232a34b6e8f, type: 3}
    - {fileID: 21300000, guid: 0e944bd28ffe5b44dab13a4e5c457f01, type: 3}
    - {fileID: 21300000, guid: 46db1c6ccda70cf4cb1dc576c7d14c40, type: 3}
    - {fileID: 21300000, guid: 5751b5034b6f35a47a5cd4215287b88d, type: 3}
    - {fileID: 21300000, guid: 1671949a7cff06d499a84f471dbdde32, type: 3}
    - {fileID: 21300000, guid: 2472d5675fb96ac4f9f860ff15ce9858, type: 3}
    - {fileID: 21300000, guid: d41eff73364082d4fbe743efec33fa2d, type: 3}
    - {fileID: 21300000, guid: b3ee0897e9c0fd249b5ff249093764e8, type: 3}
    - {fileID: 21300000, guid: c6fe69f0cfe4ba44b8c4face9b9abac4, type: 3}
    - {fileID: 21300000, guid: 6c7bfced16e08c44a9c0f880f1a1a176, type: 3}
    - {fileID: 21300000, guid: b596ad3ea0986454dbad331285209cc6, type: 3}
    - {fileID: 21300000, guid: 7732522d8deaadd47ab23efc357875a1, type: 3}
    - {fileID: 21300000, guid: 69c27f6092dbc3e449009f24e71a65a7, type: 3}
    - {fileID: 21300000, guid: a608c090266dd4a42b15b519b118eabd, type: 3}
    - {fileID: 21300000, guid: 1f1a32228e62d13438b467d04be24e68, type: 3}
    - {fileID: 21300000, guid: 02874e140e5597d48a4654d660f06360, type: 3}
    - {fileID: 21300000, guid: 348050d1b78bbb545a96953cc42f3386, type: 3}
    - {fileID: 21300000, guid: 528521762e4cbd14c82df78b5742e37a, type: 3}
    - {fileID: 21300000, guid: d1b56b131877cc447bea60bea48d61dd, type: 3}
    - {fileID: 21300000, guid: 6aefd9ea3ed719343824c29ac2d7c3ae, type: 3}
    - {fileID: 21300000, guid: 77ffa45662c0f2543bb4cacda0bd6808, type: 3}
    - {fileID: 21300000, guid: 69dfb89e60e18674c95a0c7fb5b5e3e4, type: 3}
    - {fileID: 21300000, guid: 1c7b8ee62ba2d5442885cc8e3faa37f1, type: 3}
    - {fileID: 21300000, guid: af741e15e7ee6a249832691d56b47fcf, type: 3}
    - {fileID: 21300000, guid: 21d9c4d9ddcbfd749aa3963fd14e5deb, type: 3}
    - {fileID: 21300000, guid: 2d0334a3bf889b54d9968fbaa47da0d0, type: 3}
    - {fileID: 21300000, guid: 7d0acf714de566049b4b59965443dab2, type: 3}
    - {fileID: 21300000, guid: f6d9ad645273e444d9c53d4f67fa9aec, type: 3}
    - {fileID: 21300000, guid: adc1c794dd20c4a4f92807c54c87eb83, type: 3}
    - {fileID: 21300000, guid: e615fbb001e9aa542ae0145d06ceded4, type: 3}
    - {fileID: 21300000, guid: e51e5e69af178d2489aab60145eedb29, type: 3}
    - {fileID: 21300000, guid: 6699dd95729e6d246807992705525e66, type: 3}
    - {fileID: 21300000, guid: 53fd8d8bdf3842740be5149d574d88be, type: 3}
    - {fileID: 21300000, guid: a7ae13b63aa8b2843bc312a971518d17, type: 3}
    - {fileID: 21300000, guid: 8724a090be2222f40912a16c15f63724, type: 3}
    - {fileID: 21300000, guid: bad5e0b9e574dcd41820556acb2408d8, type: 3}
    - {fileID: 21300000, guid: 6c8773d3320b3dd4fbe97fa7a1a80e89, type: 3}
    - {fileID: 21300000, guid: f8ab8ecd0a5be584fa2438251e670a47, type: 3}
    - {fileID: 21300000, guid: a38e8f8895fb5654787665631a352ab4, type: 3}
    - {fileID: 21300000, guid: 469539f0db0db0c408382bc6ba30274f, type: 3}
    - {fileID: 21300000, guid: dbe5335a3d1d4fe44aed6821bb91d8ba, type: 3}
    - {fileID: 21300000, guid: 3a83f023670da644eb025bd522705df7, type: 3}
    - {fileID: 21300000, guid: 5e11f776b4f4793489b9ec4679258797, type: 3}
    - {fileID: 21300000, guid: ccfbe43d2237a1f42b09014733470d2f, type: 3}
    - {fileID: 21300000, guid: 5c35f1ecddccafc4f9611a7b294de0b1, type: 3}
    - {fileID: 21300000, guid: d4a95a1ea903bf440abcdd7385795add, type: 3}
    - {fileID: 21300000, guid: 4fdb50faf2fccc74ea80169b3054997b, type: 3}
    - {fileID: 21300000, guid: 467e2cb3be7ded747904a2ae7da088a5, type: 3}
    - {fileID: 21300000, guid: bf23793485b3b75439b99ad7d8820748, type: 3}
    - {fileID: 21300000, guid: ede769542a7b3d34396228265b4c0064, type: 3}
    - {fileID: 21300000, guid: cbff5b621bdd1e64d994a8339b3ea44a, type: 3}
    - {fileID: 21300000, guid: e8d008f17f201bd4cbded334d9e69b5a, type: 3}
    - {fileID: 21300000, guid: 2f66c95d4e3a1224ba723cd97f5be658, type: 3}
    - {fileID: 21300000, guid: 9452fb6f9be6c8248b0e97560df0b82b, type: 3}
    - {fileID: 21300000, guid: 331d7dccb9983e443b5dde5693b12eed, type: 3}
    - {fileID: 21300000, guid: e8dcaf9166a0f1f448dcaefdd6411da7, type: 3}
    - {fileID: 21300000, guid: 36db13d94cac39b4b97a13182fb7ce72, type: 3}
    - {fileID: 21300000, guid: 4d375c4c422c5e54c860226737c5dfd0, type: 3}
    - {fileID: 21300000, guid: 46c6c1c560c98634bb1fc344cec835d7, type: 3}
    - {fileID: 21300000, guid: 4b77c10015ce1544397a5a3abadde1d4, type: 3}
    - {fileID: 21300000, guid: a8d73429360eea7459fa7bb1ab8e6195, type: 3}
    - {fileID: 21300000, guid: e993cf5d8d03d4a4f90896b8ca58c58d, type: 3}
    - {fileID: 21300000, guid: 3bc7280e0a807224b82036ffecd1251d, type: 3}
    - {fileID: 21300000, guid: 8e861b708407ccf45a1b887e7adf6a44, type: 3}
    - {fileID: 21300000, guid: 4a1855db61c4481459b2649f409707f0, type: 3}
    - {fileID: 21300000, guid: df3570efc3809ca4d9f773396eeb5f59, type: 3}
    - {fileID: 21300000, guid: bdd572bda028ae249b7fe92f82153986, type: 3}
    - {fileID: 21300000, guid: 7ca9172dc89b43c42aaf813c20a7e6ba, type: 3}
    - {fileID: 21300000, guid: f2b7d444e12dd29489464e927bedc3df, type: 3}
    - {fileID: 21300000, guid: cf7adce815bcf3a40b603d88dcda3b98, type: 3}
    - {fileID: 21300000, guid: f044e276c3e406b4cba5aa504103e29d, type: 3}
    - {fileID: 21300000, guid: c7c937396d6dcd34cb3b7f51f4ebaa69, type: 3}
    - {fileID: 21300000, guid: 9a0b9084af471234d94d07958fad9662, type: 3}
    - {fileID: 21300000, guid: 30fbd8bc5e395764ba00e5ba8c0b1f76, type: 3}
    - {fileID: 21300000, guid: 3f188959b1a58c841bd423f384f4f72f, type: 3}
    - {fileID: 21300000, guid: a0e9f7a6030a9754a9278e61a12d48ac, type: 3}
    - {fileID: 21300000, guid: 3bdc24a3e2c4a2745bfc5d4465df1161, type: 3}
    - {fileID: 21300000, guid: a1b27ea327b0ba84599d8cbc0083441e, type: 3}
    - {fileID: 21300000, guid: 6ed7a9a3679a26842afc74e7926fee6f, type: 3}
    - {fileID: 21300000, guid: 747ed464489189e4a96de01ecaf49516, type: 3}
    - {fileID: 21300000, guid: 4cbac5bcd92ae71429368792c5b5baa1, type: 3}
    - {fileID: 21300000, guid: 207dfb1de9b06624688209010ee66905, type: 3}
    - {fileID: 21300000, guid: 701e7f242a261f14782ee7e3743d6c08, type: 3}
    - {fileID: 21300000, guid: 9fdc089b0345d8e428d10dcf14ab5d73, type: 3}
    - {fileID: 21300000, guid: b636dba9bf957df48a50b20f254b5dd1, type: 3}
    - {fileID: 21300000, guid: c6066757f8baa7a46966455f24a5b99f, type: 3}
    - {fileID: 21300000, guid: 382477766d8030c4bb155c63f88d04de, type: 3}
    - {fileID: 21300000, guid: 9f5b5ff4e38559d44865f352b60d94e6, type: 3}
    - {fileID: 21300000, guid: 3b6c6e50088fc014d8b2260b755b3bbf, type: 3}
    - {fileID: 21300000, guid: 871c93bd8d50e424f80fca4271faf9fe, type: 3}
    - {fileID: 21300000, guid: 31c348603651f4d44b890a4960040ad0, type: 3}
    - {fileID: 21300000, guid: 6dbe064ed4380e04db609a4ff7de4577, type: 3}
    - {fileID: 21300000, guid: 8e64b4c5e42ff0a48a18a7de8ed45fb6, type: 3}
    - {fileID: 21300000, guid: 62ec86adbfa3bc142919d052d5e58878, type: 3}
    - {fileID: 21300000, guid: f2ba9aedf1551c149b185a626f1720f2, type: 3}
    - {fileID: 21300000, guid: 9974050b81e987d4baad4a0a79b7d544, type: 3}
    - {fileID: 21300000, guid: 98e85ccb4e0891c46a44e18dff1af617, type: 3}
  m_AnimationClipSettings:
    serializedVersion: 2
    m_AdditiveReferencePoseClip: {fileID: 0}
    m_AdditiveReferencePoseTime: 0
    m_StartTime: 0
    m_StopTime: 13.25
    m_OrientationOffsetY: 0
    m_Level: 0
    m_CycleOffset: 0
    m_HasAdditiveReferencePose: 0
    m_LoopTime: 1
    m_LoopBlend: 0
    m_LoopBlendOrientation: 0
    m_LoopBlendPositionY: 0
    m_LoopBlendPositionXZ: 0
    m_KeepOriginalOrientation: 0
    m_KeepOriginalPositionY: 1
    m_KeepOriginalPositionXZ: 0
    m_HeightFromFeet: 0
    m_Mirror: 0
  m_EditorCurves: []
  m_EulerEditorCurves: []
  m_HasGenericRootTransform: 0
  m_HasMotionFloatCurves: 0
  m_GenerateMotionCurves: 0
  m_Events: []
