%YAML 1.1
%TAG !u! tag:unity3d.com,2011:
--- !u!21 &2100000
Material:
  serializedVersion: 6
  m_ObjectHideFlags: 0
  m_CorrespondingSourceObject: {fileID: 0}
  m_PrefabInternal: {fileID: 0}
  m_Name: LPWaterPerformance
  m_Shader: {fileID: 4800000, guid: 8165be4dd0b12774d80426d906df9c38, type: 3}
  m_ShaderKeywords: _DISTORT_ON _EMISSION _SHADING_FLAT _WAVES_OFF _ZWRITE_ON
  m_LightmapFlags: 1
  m_EnableInstancingVariants: 0
  m_DoubleSidedGI: 0
  m_CustomRenderQueue: 2501
  stringTagMap:
    QUEUE: AlphaTest+50
  disabledShaderPasses: []
  m_SavedProperties:
    serializedVersion: 3
    m_TexEnvs:
    - _BumpTex:
        m_Texture: {fileID: 2800000, guid: 5172883f19560c34db24c164f824d406, type: 3}
        m_Scale: {x: 1, y: 1}
        m_Offset: {x: 0, y: 0}
    - _FresnelTex:
        m_Texture: {fileID: 2800000, guid: bbe71c065be7eca47b24d1e03bf041b3, type: 3}
        m_Scale: {x: 1, y: 1}
        m_Offset: {x: 0, y: 0}
    - _NoiseTex:
        m_Texture: {fileID: 2800000, guid: 6a1c221a7d11eaa4e875ae74a888d906, type: 3}
        m_Scale: {x: 1, y: 1}
        m_Offset: {x: 0, y: 0}
    - _ReflectionTex:
        m_Texture: {fileID: 0}
        m_Scale: {x: 1, y: 1}
        m_Offset: {x: 0, y: 0}
    - _RefractionTex:
        m_Texture: {fileID: 0}
        m_Scale: {x: 1, y: 1}
        m_Offset: {x: 0, y: 0}
    m_Floats:
    - _Absorption: 10
    - _BumpScale: 35
    - _BumpScale_: 35
    - _BumpSpeed: 0.2
    - _Cull: 0
    - _Cull_: 2
    - _Diffuse: 1
    - _Direction: 180
    - _Distort: 1
    - _Distortion: 1
    - _EdgeBlend: 0
    - _EnableShadows: 0
    - _FoamScale: 20
    - _FoamSpeed: 0.3
    - _FoamSpread: 1
    - _FresPower: 1.5
    - _HQFoam: 0
    - _Height: 0.4
    - _Height_: 0.4
    - _Length: 4
    - _LightAbs: 0
    - _NormalOffset: 1
    - _Opacity: 0.4
    - _PointLights: 0
    - _RHeight: 0.2
    - _RHeight_: 0.2
    - _RSpeed: 0.8
    - _RSpeed_: 0.8
    - _Reflection: 1.2
    - _Refraction: 2
    - _Scale: 1
    - _Scale_: 1
    - _Shading: 0
    - _Shadow: 0.6
    - _ShoreDistance: 0.5
    - _ShoreIntensity: 1
    - _Specular: 92
    - _Speed: 0.5
    - _Speed_: 0.5
    - _Steepness: 0.15
    - _Stretch: 10
    - _TexSize_: 64
    - _Time_: 0
    - _TransformScale_: 1
    - _Waves: 0
    - _ZWrite: 1
    m_Colors:
    - _Color: {r: 0, g: 0.6006591, b: 0.75735295, a: 1}
    - _DeepColor: {r: 0, g: 0.20955881, b: 0.41911763, a: 1}
    - _Direction_: {r: -1, g: -0.00000008742278, b: -0.6, a: -0.000000052453668}
    - _FresColor: {r: 0.36689016, g: 0.52222586, b: 0.5735294, a: 1}
    - _ShoreColor: {r: 1, g: 1, b: 1, a: 1}
    - _SpecColor: {r: 0.6764706, g: 0.6359274, b: 0.2785467, a: 1}
    - _Sun: {r: 0.3213938, g: 0.76604444, b: -0.5566705, a: 0}
    - _SunColor: {r: 1, g: 0.95686275, b: 0.8392157, a: 1}
